<svg xmlns="http://www.w3.org/2000/svg" width="34.713" height="35.783" viewBox="0 0 34.713 35.783">
  <g id="price-tags" transform="translate(-4.446 -1.992)">
    <path id="Path_160" data-name="Path 160" d="M28.425,37.772a.545.545,0,0,1-.377-.15L11.942,22.182a.5.5,0,0,1-.15-.441l1.859-11.283a.523.523,0,0,1,.444-.425L25.864,8.251a.548.548,0,0,1,.46.144L42.43,23.835a.5.5,0,0,1,0,.723L28.8,37.622A.545.545,0,0,1,28.425,37.772ZM12.888,21.643l15.537,14.9L41.3,24.2,25.762,9.3,14.644,10.985Z" transform="translate(-3.426 -3.057)" fill="#55cb95"/>
    <path id="Path_161" data-name="Path 161" d="M23.184,22.139a2.7,2.7,0,0,1-2.668-2.1,2.589,2.589,0,0,1,1.63-2.919,2.788,2.788,0,0,1,3.3.962,2.529,2.529,0,0,1-.34,3.294A2.776,2.776,0,0,1,23.184,22.139Zm0-4.2a1.641,1.641,0,0,0-1.624,1.279A1.576,1.576,0,0,0,22.551,21a1.7,1.7,0,0,0,2.012-.585,1.54,1.54,0,0,0-.206-2.006,1.683,1.683,0,0,0-1.173-.466Z" transform="translate(-7.478 -7.298)" fill="#55cb95"/>
    <path id="Path_162" data-name="Path 162" d="M5.172,24.093,4.5,22.7a.492.492,0,0,1,.017-.464l5.774-9.993.933.5L5.577,22.507l.561,1.153Z" transform="translate(0 -5.013)" fill="#55cb95"/>
    <path id="Path_163" data-name="Path 163" d="M16.085,55.6a.535.535,0,0,1-.483-.295L7.616,38.886l.967-.432,7.76,15.956,8.781-3.925.451.925-9.264,4.14a.552.552,0,0,1-.226.051Z" transform="translate(-1.48 -17.825)" fill="#55cb95"/>
    <path id="Path_164" data-name="Path 164" d="M14.912,13.19a4.541,4.541,0,0,1-.977-.115l.238-1a1.967,1.967,0,0,0,1.663-.208c.415-.4.414-1.231-.005-2.285a11.166,11.166,0,0,0-2.666-3.71C10.536,3.355,7.759,2.5,6.912,3.314S6.954,6.79,9.584,9.309q.267.252.533.487l-.716.758q-.288-.25-.572-.522c-2.975-2.851-4.123-6.05-2.672-7.44s4.788-.29,7.762,2.561a12.185,12.185,0,0,1,2.908,4.069c.586,1.468.5,2.666-.237,3.373a2.33,2.33,0,0,1-1.679.595Z" transform="translate(-0.507 0)" fill="#55cb95"/>
  </g>
</svg>
