<svg xmlns="http://www.w3.org/2000/svg" width="36.682" height="35.4" viewBox="0 0 36.682 35.4">
  <g id="indonesian-rupiah" transform="translate(1.246 0.577)">
    <g id="Group_6" data-name="Group 6" transform="translate(-1.246 -0.577)">
      <path id="Path_53" data-name="Path 53" d="M18.341,0a.977.977,0,0,0-.994.959.977.977,0,0,0,.994.959,16.626,16.626,0,0,1,10.833,3.97L26.825,8.154a13.379,13.379,0,0,0-16.963,0L6.809,5.214,6.793,5.2l-.015-.016a1.02,1.02,0,0,0-1.406,0A17.275,17.275,0,0,0,0,17.7c0,9.759,8.228,17.7,18.341,17.7A18.562,18.562,0,0,0,31.31,30.212,17.275,17.275,0,0,0,36.682,17.7C36.682,7.939,28.454,0,18.341,0Zm7.812,10.169a1.02,1.02,0,0,0,1.406,0,.988.988,0,0,0,.079-.087l.006-.006L30.58,7.245a15.434,15.434,0,0,1,4.083,9.493H33.556a.96.96,0,1,0,0,1.919h1.106a15.363,15.363,0,0,1-4.077,9.5l-2.359-2.276A12.264,12.264,0,0,0,31.371,17.7a.995.995,0,0,0-1.988,0A10.865,10.865,0,0,1,18.341,28.352,10.865,10.865,0,0,1,7.3,17.7,10.865,10.865,0,0,1,18.341,7.043a11.174,11.174,0,0,1,7.812,3.126ZM18.341,31.328a.977.977,0,0,0-.994.959v1.16a16.6,16.6,0,0,1-9.838-3.94l2.353-2.271a13.364,13.364,0,0,0,16.958,0l2.359,2.276a16.524,16.524,0,0,1-9.844,3.934v-1.16A.977.977,0,0,0,18.341,31.328ZM2.02,18.657H5.349a12.294,12.294,0,0,0,3.107,7.222L6.1,28.15a15.435,15.435,0,0,1-4.08-9.493ZM6.1,7.239,8.456,9.516a12.3,12.3,0,0,0-3.107,7.222H2.019A15.363,15.363,0,0,1,6.1,7.239Z" fill="#55cb95"/>
      <path id="Path_54" data-name="Path 54" d="M170.029,171.79a3.1,3.1,0,0,0,1.138-2.375,3.184,3.184,0,0,0-3.236-3.122H165.3a.59.59,0,0,0-.6.579v10.11a.227.227,0,0,0,.231.223h1.085a.227.227,0,0,0,.231-.223v-4.445h1.7a1.663,1.663,0,0,1,1.672,1.629v2.817a.227.227,0,0,0,.231.223h1.085a.227.227,0,0,0,.231-.223v-2.817A3.1,3.1,0,0,0,170.029,171.79Zm-2.08-.747h-1.706v-3.257h1.7a1.643,1.643,0,0,1,1.545,2.261,1.789,1.789,0,0,1-1.539,1Z" transform="translate(-152.896 -154.797)" fill="#55cb95"/>
      <path id="Path_55" data-name="Path 55" d="M271.281,223.026a2.7,2.7,0,0,0-1.3.332V223.1a.24.24,0,0,0-.245-.236h-1.115a.241.241,0,0,0-.245.236v8.02a.241.241,0,0,0,.245.236h1.115a.24.24,0,0,0,.245-.236v-2.843a2.7,2.7,0,0,0,1.3.332,2.793,2.793,0,1,0,0-5.586Zm0,4.168a1.379,1.379,0,1,1,1.281-1.375A1.333,1.333,0,0,1,271.281,227.194Z" transform="translate(-249.148 -207.459)" fill="#55cb95"/>
    </g>
  </g>
</svg>
