<svg xmlns="http://www.w3.org/2000/svg" width="36.682" height="35.4" viewBox="0 0 36.682 35.4">
  <g id="avatar" transform="translate(-36.073)">
    <g id="Group_48" data-name="Group 48" transform="translate(36.073)">
      <path id="Path_165" data-name="Path 165" d="M146.246,19.075h.286a9.148,9.148,0,0,0,6.3-2.236c3.438-3.182,2.867-8.636,2.8-9.156A7.361,7.361,0,0,0,151.3,1.034,11.653,11.653,0,0,0,146.5,0h-.152a11.736,11.736,0,0,0-4.8,1,7.379,7.379,0,0,0-4.385,6.678c-.063.52-.634,5.975,2.8,9.156A9.109,9.109,0,0,0,146.246,19.075ZM139.539,7.866c0-.022.009-.044.009-.059.295-5.256,4.84-5.821,6.787-5.821h.107c2.411.044,6.51.85,6.787,5.821a.119.119,0,0,0,.009.059c.009.051.634,5.036-2.206,7.661a6.523,6.523,0,0,1-4.6,1.569h-.089a6.5,6.5,0,0,1-4.59-1.569C138.923,12.917,139.53,7.91,139.539,7.866Z" transform="translate(-128.061)" fill="#c8c8c8"/>
      <path id="Path_166" data-name="Path 166" d="M72.752,268.36v-.022c0-.059-.009-.117-.009-.183-.054-1.452-.17-4.846-4.045-5.931l-.089-.022a28.52,28.52,0,0,1-7.412-2.771,1.379,1.379,0,0,0-1.679.242.882.882,0,0,0,.295,1.378,30.771,30.771,0,0,0,8.153,3.057c2.081.608,2.313,2.434,2.375,4.105a1.211,1.211,0,0,0,.009.183,10.969,10.969,0,0,1-.188,2.265,38.616,38.616,0,0,1-15.744,3.006,38.84,38.84,0,0,1-15.753-3.013,10.386,10.386,0,0,1-.188-2.265c0-.059.009-.117.009-.183.063-1.671.295-3.5,2.375-4.105a31.06,31.06,0,0,0,8.153-3.057.882.882,0,0,0,.295-1.378,1.379,1.379,0,0,0-1.679-.242,28.2,28.2,0,0,1-7.412,2.771c-.036.007-.063.015-.089.022-3.876,1.092-3.992,4.486-4.045,5.931a1.21,1.21,0,0,1-.009.183v.022a9.326,9.326,0,0,0,.455,3.321,1.01,1.01,0,0,0,.464.462c.268.147,6.689,3.5,17.432,3.5s17.164-3.365,17.432-3.5a1.054,1.054,0,0,0,.464-.462A9.774,9.774,0,0,0,72.752,268.36Z" transform="translate(-36.073 -240.24)" fill="#c8c8c8"/>
    </g>
  </g>
</svg>
