<svg xmlns="http://www.w3.org/2000/svg" width="36.979" height="36" viewBox="0 0 36.979 36">
  <g id="money-transfer" transform="translate(-0.294 0)">
    <ellipse id="Ellipse_19" data-name="Ellipse 19" cx="10.48" cy="10.191" rx="10.48" ry="10.191" transform="translate(8.118 7.809)" fill="#f6e266"/>
    <path id="Path_141" data-name="Path 141" d="M243.548,111.063q-.389,0-.772.028a10.174,10.174,0,0,1,0,20.327q.382.027.772.028a10.195,10.195,0,1,0,0-20.382Z" transform="translate(-224.949 -103.254)" fill="#ecbe6b"/>
    <g id="Group_25" data-name="Group 25" transform="translate(10.315 9.945)">
      <path id="Path_142" data-name="Path 142" d="M147.175,157.554a8.058,8.058,0,1,1,8.283-8.055A8.181,8.181,0,0,1,147.175,157.554Zm0-15.014a6.962,6.962,0,1,0,7.156,6.959A7.068,7.068,0,0,0,147.175,142.54Z" transform="translate(-138.892 -141.444)" fill="#eab14d"/>
    </g>
    <g id="Group_26" data-name="Group 26" transform="translate(16.413 14.487)">
      <path id="Path_143" data-name="Path 143" d="M225.3,213a2.883,2.883,0,0,1-1.824-.5.539.539,0,0,1-.163-.758.573.573,0,0,1,.78-.158,1.807,1.807,0,0,0,1.272.325,1.085,1.085,0,0,0,1.086-.9.821.821,0,0,0-.612-.967,6.557,6.557,0,0,1-1.859-.868,1.589,1.589,0,0,1-.549-1.59,1.833,1.833,0,0,1,1.281-1.423,3.223,3.223,0,0,1,2.413.309.539.539,0,0,1,.176.756.573.573,0,0,1-.774.173,2.072,2.072,0,0,0-1.489-.188.735.735,0,0,0-.5.577.532.532,0,0,0,.137.525,6.112,6.112,0,0,0,1.539.7,1.924,1.924,0,0,1,1.348,2.181,2.214,2.214,0,0,1-2.19,1.812H225.3Z" transform="translate(-223.22 -206.041)" fill="#eab14d"/>
    </g>
    <g id="Group_27" data-name="Group 27" transform="translate(17.997 13.705)">
      <path id="Path_144" data-name="Path 144" d="M245.693,203.509a.556.556,0,0,1-.563-.548v-7.494a.564.564,0,0,1,1.127,0v7.494A.556.556,0,0,1,245.693,203.509Z" transform="translate(-245.13 -194.919)" fill="#eab14d"/>
    </g>
    <g id="Group_30" data-name="Group 30" transform="translate(26.716 5.912)">
      <g id="Group_28" data-name="Group 28" transform="translate(0 1.578)">
        <path id="Path_145" data-name="Path 145" d="M370.384,107.617h-4.106a.548.548,0,1,1,0-1.1h4.106a.548.548,0,1,1,0,1.1Z" transform="translate(-365.714 -106.521)" fill="#78c2a4"/>
      </g>
      <g id="Group_29" data-name="Group 29" transform="translate(3.458)">
        <path id="Path_146" data-name="Path 146" d="M414.1,88.332a.571.571,0,0,1-.351-.12.538.538,0,0,1-.089-.77l1.015-1.236-1.015-1.236a.538.538,0,0,1,.089-.77.574.574,0,0,1,.792.086l1.3,1.578a.536.536,0,0,1,0,.684l-1.3,1.578a.569.569,0,0,1-.441.206Z" transform="translate(-413.538 -84.081)" fill="#78c2a4"/>
      </g>
    </g>
    <path id="Path_147" data-name="Path 147" d="M310.2,6.6l3.036-2.985a.42.42,0,0,0,0-.6L310.2.032a.111.111,0,0,0-.189.075V1.376a.367.367,0,0,1-.372.362h-11.52a.212.212,0,0,0-.215.209V4.688a.212.212,0,0,0,.215.209h11.52a.367.367,0,0,1,.372.362V6.527A.111.111,0,0,0,310.2,6.6Z" transform="translate(-276.089 0)" fill="#78c2a4"/>
    <path id="Path_148" data-name="Path 148" d="M468.486,3.016,465.45.032a.111.111,0,0,0-.189.075V1.376a.355.355,0,0,1-.007.063l1.5,1.478a.558.558,0,0,1,0,.8l-1.5,1.478a.355.355,0,0,1,.007.063V6.527a.111.111,0,0,0,.189.075l3.036-2.985a.42.42,0,0,0,0-.6Z" transform="translate(-431.341 0)" fill="#66b394"/>
    <g id="Group_33" data-name="Group 33" transform="translate(4.969 25.837)">
      <g id="Group_31" data-name="Group 31" transform="translate(0.648 1.578)">
        <path id="Path_149" data-name="Path 149" d="M78.585,390.991H74.478a.548.548,0,1,1,0-1.1h4.106a.548.548,0,1,1,0,1.1Z" transform="translate(-73.915 -389.895)" fill="#78c2a4"/>
      </g>
      <g id="Group_32" data-name="Group 32">
        <path id="Path_150" data-name="Path 150" d="M66.81,371.708a.569.569,0,0,1-.441-.206l-1.3-1.578a.536.536,0,0,1,0-.684l1.3-1.578a.574.574,0,0,1,.792-.086.538.538,0,0,1,.089.77l-1.015,1.236,1.015,1.236a.538.538,0,0,1-.089.77A.571.571,0,0,1,66.81,371.708Z" transform="translate(-64.95 -367.457)" fill="#78c2a4"/>
      </g>
    </g>
    <path id="Path_151" data-name="Path 151" d="M3.457,417.671.421,420.655a.419.419,0,0,0,0,.6l3.036,2.985a.111.111,0,0,0,.189-.075V422.9a.367.367,0,0,1,.372-.362h11.52a.212.212,0,0,0,.215-.209v-2.741a.212.212,0,0,0-.215-.209H4.018a.367.367,0,0,1-.372-.362v-1.269a.111.111,0,0,0-.189-.075Z" transform="translate(0 -388.273)" fill="#78c2a4"/>
    <path id="Path_152" data-name="Path 152" d="M.421,421.256l3.036,2.985a.111.111,0,0,0,.189-.075V422.9a.352.352,0,0,1,.007-.063l-1.5-1.478a.558.558,0,0,1,0-.8l1.5-1.478a.352.352,0,0,1-.007-.063v-1.269a.111.111,0,0,0-.189-.075L.421,420.654a.42.42,0,0,0,0,.6Z" transform="translate(-0.001 -388.272)" fill="#66b394"/>
  </g>
</svg>
