<svg xmlns="http://www.w3.org/2000/svg" xmlns:xlink="http://www.w3.org/1999/xlink" width="56" height="58" viewBox="0 0 56 58">
  <defs>
    <clipPath id="clip-path">
      <ellipse id="Ellipse_6" data-name="Ellipse 6" cx="28" cy="29" rx="28" ry="29" transform="translate(224.78 347)" fill="#f6f6f6" stroke="#707070" stroke-width="1"/>
    </clipPath>
  </defs>
  <g id="Mask_Group_4" data-name="Mask Group 4" transform="translate(-224.78 -347)" clip-path="url(#clip-path)">
    <g id="world" transform="translate(221.494 345.533)">
      <path id="Path_8" data-name="Path 8" d="M57.394,12.173h.013c-.04-.041-.085-.076-.125-.118s-.087-.1-.134-.15c-.308-.313-.637-.594-.968-.893-.4-.379-.794-.767-1.216-1.124-.378-.32-.783-.608-1.178-.911-.441-.338-.872-.691-1.335-1.006-.41-.282-.849-.532-1.273-.794-.478-.295-.942-.6-1.435-.874-.446-.243-.913-.451-1.371-.676-.5-.245-.993-.5-1.509-.724-.482-.206-.985-.371-1.486-.552s-1.025-.4-1.554-.561-1.061-.28-1.59-.412-1.048-.289-1.587-.4S39.535,2.8,38.975,2.72s-1.074-.179-1.624-.233S36.2,2.426,35.626,2.4c-.488-.033-.976-.087-1.479-.087h-.378c-.505,0-.993.066-1.486.095-.577.031-1.159.045-1.725.107s-1.078.165-1.615.252-1.125.163-1.674.28-1.061.276-1.592.412-1.061.264-1.57.431-1.04.386-1.558.583-.987.357-1.464.567c-.514.225-1,.491-1.5.742-.454.227-.919.441-1.358.689-.49.278-.953.59-1.426.891-.424.268-.849.522-1.261.808-.456.322-.883.678-1.32,1.031-.39.307-.794.6-1.167.924-.424.363-.806.757-1.205,1.14-.314.305-.652.588-.953.9h.015c-.087.091-.185.171-.272.264a30.172,30.172,0,0,0-8.3,20.805c0,.124-.017.243-.015.367C2.549,50.42,16.567,63.976,33.881,64.129c.089,0,.176.029.265.029.04,0,.079-.012.119-.012h.259c17.412-.233,31.41-14,31.439-30.911,0-.124.017-.243.015-.367a30.185,30.185,0,0,0-8.585-20.7Z" transform="translate(-2.314 -2.312)" fill="#b7fff6"/>
    </g>
  </g>
</svg>
